id,status
1,Draft - In Progress Draft
2,Draft - Send to HR
3,Final Review - Send to Chain of Command
4,Final Review - Pending Chain of Command
5,Final Review - Approved Chain of Command
6,Final - Issued to Employee
7,Final - Verbal Issued
8,Canceled
