id,coaching,date,eligible_for_rehire,category
1,1,2022-06-13 00:51:18,true,3
2,2,2022-07-06 15:36:38,false,2
3,3,2022-06-10 12:45:34,true,4
4,4,2022-06-19 17:21:23,false,1
5,5,2022-05-19 17:14:41,false,2
6,6,2022-05-20 18:39:01,true,4
7,7,2022-06-05 08:43:23,true,3
8,8,2022-05-10 15:55:59,true,1
9,9,2022-06-08 05:38:52,true,4
10,10,2022-07-06 21:51:17,true,1
11,11,2022-06-15 09:25:15,false,2
12,12,2022-06-13 04:55:14,false,3
13,13,2022-05-16 12:05:09,true,4
14,14,2022-06-30 16:50:40,true,1
15,15,2022-08-04 14:01:55,true,2
16,16,2022-07-26 16:38:51,true,3
17,17,2022-05-18 11:02:53,true,2
18,18,2022-06-12 15:44:21,true,3
19,19,2022-07-14 19:10:28,true,4
20,20,2022-06-10 09:22:56,true,1
21,21,2022-07-14 14:51:01,true,3
22,22,2022-08-08 14:37:47,true,1
23,23,2022-07-05 07:01:25,true,4
24,24,2022-05-18 04:24:42,true,2
25,25,2022-08-06 17:19:50,true,4
26,26,2022-06-04 15:02:03,false,3
27,27,2022-05-22 15:52:54,true,4
28,28,2022-05-19 12:54:42,true,1
29,29,2022-07-28 04:18:13,false,2
30,30,2022-06-29 03:09:28,true,2
31,31,2022-05-27 03:43:08,false,4
32,32,2022-07-08 08:02:41,false,3
33,33,2022-06-01 21:21:37,false,1
34,34,2022-07-06 04:18:26,true,2
35,35,2022-07-08 20:17:19,true,4
36,36,2022-05-24 13:35:26,true,1
37,37,2022-07-13 10:45:00,true,3
38,38,2022-06-26 08:58:18,true,1
39,39,2022-07-31 09:02:56,false,4
40,40,2022-06-19 10:20:35,true,2
41,41,2022-05-23 00:35:08,true,3
42,42,2022-07-02 20:50:26,true,3
43,43,2022-07-25 11:34:26,false,4
44,44,2022-06-25 18:02:33,true,2
45,45,2022-05-27 03:06:29,true,1
46,46,2022-06-16 13:35:32,true,4
47,47,2022-05-20 00:01:56,true,3
48,48,2022-06-08 18:26:14,false,1
49,49,2022-06-18 12:54:12,false,2
50,50,2022-07-24 06:24:38,false,2
51,51,2022-07-05 13:49:43,false,3
52,52,2022-07-11 05:49:29,false,2
53,53,2022-06-22 03:51:33,true,4
54,54,2022-05-13 19:26:54,true,1
55,55,2022-07-28 20:20:34,false,3
56,56,2022-06-30 13:07:18,true,1
57,57,2022-06-19 06:19:19,true,2
58,58,2022-07-19 23:29:04,false,4
59,59,2022-07-06 22:16:10,true,1
60,60,2022-07-14 18:50:34,false,2
61,61,2022-07-09 22:47:58,true,4
62,62,2022-06-01 11:36:58,true,3
63,63,2022-06-14 06:33:33,true,1
64,64,2022-06-04 17:57:59,false,2
65,65,2022-07-23 05:29:19,false,4
66,66,2022-06-07 16:06:23,true,3
67,67,2022-07-10 06:18:46,true,3
68,68,2022-06-19 10:04:28,false,1
69,69,2022-06-13 23:55:54,false,4
70,70,2022-07-21 10:30:39,true,2
71,71,2022-06-09 00:47:13,false,3
72,72,2022-07-25 17:18:31,false,4
73,73,2022-05-21 07:56:32,false,1
74,74,2022-07-24 00:01:35,false,2
75,75,2022-07-14 21:48:09,false,4
76,76,2022-07-26 20:11:17,true,1
77,77,2022-06-02 16:22:40,true,3
78,78,2022-05-30 03:51:47,true,4
79,79,2022-07-17 01:52:41,true,2
80,80,2022-05-15 10:24:19,true,1
81,81,2022-07-07 19:12:01,true,2
82,82,2022-06-13 08:39:31,false,3
83,83,2022-06-29 19:25:24,true,4
84,84,2022-07-22 17:41:00,false,2
85,85,2022-05-25 22:48:36,true,4
86,86,2022-06-03 22:40:51,false,1
87,87,2022-07-14 19:47:06,true,3
88,88,2022-07-03 07:42:30,false,4
89,89,2022-05-26 02:36:44,false,1
90,90,2022-06-29 14:15:44,false,3
91,91,2022-07-18 20:28:31,true,2
92,92,2022-06-24 05:21:21,true,2
93,93,2022-06-09 21:43:11,true,4
94,94,2022-07-06 08:35:33,false,3
95,95,2022-07-28 04:44:59,false,1
96,96,2022-07-03 06:53:09,false,4
97,97,2022-07-05 18:25:30,true,1
98,98,2022-05-13 15:17:09,true,2
99,99,2022-07-08 06:45:06,false,3
100,100,2022-07-02 02:23:24,true,4
101,101,2022-05-20 11:30:25,false,2
102,102,2022-06-26 19:46:04,true,4
103,103,2022-07-19 01:07:02,false,3
104,104,2022-06-21 14:41:01,true,1
105,105,2022-07-11 07:50:58,false,1
106,106,2022-06-06 23:01:39,true,3
107,107,2022-07-09 03:45:44,false,4
108,108,2022-05-20 23:38:47,false,2
109,109,2022-07-13 07:39:40,false,3
110,110,2022-07-18 08:08:59,false,2
111,111,2022-07-12 23:30:41,false,1
112,112,2022-05-20 16:25:05,true,4
113,113,2022-05-19 11:05:03,true,2
114,114,2022-05-21 06:54:40,false,4
115,115,2022-05-31 21:15:46,true,3
116,116,2022-08-06 12:27:12,true,1
117,117,2022-07-22 05:03:42,true,3
118,118,2022-07-27 23:33:15,true,4
119,119,2022-06-09 00:53:19,true,1
120,120,2022-05-13 09:38:22,true,2
121,121,2022-05-24 03:19:56,true,1
122,122,2022-07-24 16:13:57,false,2
123,123,2022-05-14 10:51:39,true,3
124,124,2022-05-16 06:24:14,true,4
125,125,2022-08-08 06:58:00,false,3
126,126,2022-07-23 12:24:00,false,3
127,127,2022-07-19 12:55:28,false,2
128,128,2022-07-07 15:11:59,false,1
129,129,2022-05-19 16:56:40,false,4
130,130,2022-07-31 17:05:03,false,2
131,131,2022-06-19 23:28:52,false,3
132,132,2022-06-12 10:34:05,true,1
133,133,2022-06-09 12:36:33,false,4
134,134,2022-07-01 03:13:58,true,4
135,135,2022-06-07 06:03:08,true,2
136,136,2022-06-06 17:02:06,true,3
137,137,2022-06-23 11:38:12,true,1
138,138,2022-06-28 09:40:16,false,1
139,139,2022-07-28 00:13:36,false,3
140,140,2022-06-21 05:16:37,false,4
141,141,2022-06-02 10:56:25,true,2
142,142,2022-07-27 18:34:25,true,1
143,143,2022-08-02 12:17:44,true,4
144,144,2022-06-15 15:24:59,false,2
145,145,2022-05-13 16:56:19,false,3
146,146,2022-07-27 19:57:47,true,1
147,147,2022-05-09 20:05:18,true,2
148,148,2022-07-02 02:29:40,false,3
149,149,2022-08-02 09:47:54,true,4
150,150,2022-07-21 22:19:30,false,3
151,151,2022-07-30 14:33:04,true,1
152,152,2022-05-24 04:18:04,true,2
153,153,2022-06-22 18:37:36,false,3
154,154,2022-06-04 03:02:01,true,4
155,155,2022-06-12 17:22:23,false,2
156,156,2022-05-13 18:39:34,true,3
157,157,2022-06-21 10:22:58,true,4
158,158,2022-08-06 22:41:30,false,1
159,159,2022-06-18 23:36:27,false,3
160,160,2022-06-28 10:51:26,true,2
161,161,2022-05-17 12:38:16,false,1
162,162,2022-06-11 14:09:08,false,4
163,163,2022-07-21 03:58:46,false,4
164,164,2022-07-06 04:41:25,true,2
165,165,2022-08-05 14:53:23,true,1
166,166,2022-06-27 10:31:38,true,3
167,167,2022-07-23 11:14:30,false,2
168,168,2022-05-30 17:30:46,false,4
169,169,2022-06-23 17:19:58,true,1
170,170,2022-05-21 01:39:10,false,3
171,171,2022-06-16 05:15:28,true,3
172,172,2022-07-27 22:56:57,true,1
173,173,2022-05-10 03:53:19,false,2
174,174,2022-07-04 15:11:49,true,4
175,175,2022-06-26 11:14:01,false,4
176,176,2022-08-02 23:17:13,true,4
177,177,2022-08-01 18:02:29,false,2
178,178,2022-07-18 19:28:33,false,1
179,179,2022-07-22 07:57:13,true,3
180,180,2022-08-06 00:42:56,true,2
181,181,2022-06-01 02:08:12,false,4
182,182,2022-05-14 02:57:21,false,1
183,183,2022-06-29 08:22:20,true,3
184,184,2022-06-15 21:11:22,true,1
185,185,2022-06-04 09:25:17,true,3
186,186,2022-07-29 23:47:51,true,2
187,187,2022-07-03 09:57:14,false,4
188,188,2022-05-15 09:16:32,true,3
189,189,2022-06-25 18:12:05,false,2
190,190,2022-06-10 08:11:31,true,1
191,191,2022-07-23 18:27:54,true,4
192,192,2022-05-18 20:41:35,true,2
193,193,2022-05-23 16:39:29,true,4
194,194,2022-06-13 07:26:01,true,3
195,195,2022-05-13 05:56:05,false,1
196,196,2022-05-20 03:06:13,true,2
197,197,2022-08-01 12:46:48,true,4
198,198,2022-05-27 12:37:47,false,1
199,199,2022-06-05 07:38:27,false,3
200,200,2022-06-10 23:33:11,true,2
201,201,2022-05-21 14:13:50,true,4
202,202,2022-06-17 10:04:46,true,3
203,203,2022-07-09 09:09:10,true,1
204,204,2022-07-15 09:01:15,false,2
205,205,2022-06-08 20:40:07,false,3
206,206,2022-06-01 05:37:06,false,1
207,207,2022-06-17 03:37:00,false,4
208,208,2022-06-07 18:38:45,false,2
209,209,2022-07-09 16:24:00,false,2
210,210,2022-07-11 10:13:38,true,3
211,211,2022-07-08 23:23:41,false,4
212,212,2022-07-16 04:26:46,true,1
213,213,2022-07-01 21:43:54,false,2
214,214,2022-07-31 10:23:58,false,1
215,215,2022-08-01 22:23:58,false,4
216,216,2022-06-22 02:03:02,true,3
217,217,2022-05-12 06:03:34,true,1
218,218,2022-07-30 02:11:24,true,4
219,219,2022-06-20 04:45:00,false,3
220,220,2022-07-12 20:50:39,false,2
221,221,2022-06-28 22:19:48,false,1
222,222,2022-05-17 05:22:00,true,4
223,223,2022-05-13 15:25:54,true,2
224,224,2022-05-13 02:08:13,false,3
225,225,2022-05-25 22:13:09,false,2
226,226,2022-06-11 10:37:12,true,4
227,227,2022-07-10 12:22:13,true,3
228,228,2022-07-05 21:10:09,false,2
229,229,2022-06-01 21:09:59,false,1
230,230,2022-07-06 00:25:54,true,2
231,231,2022-06-13 15:45:07,true,3
232,232,2022-05-17 17:17:37,false,4
233,233,2022-07-30 22:36:40,true,1
234,234,2022-05-30 18:06:39,false,2
235,235,2022-06-06 17:20:01,false,4
236,236,2022-07-18 20:01:58,true,1
237,237,2022-08-06 13:17:56,true,3
238,238,2022-06-30 13:06:14,false,2
239,239,2022-08-06 22:33:13,false,1
240,240,2022-07-14 11:08:59,true,3
241,241,2022-06-23 03:58:57,false,4
242,242,2022-06-01 04:43:46,false,4
243,243,2022-06-21 12:56:10,false,2
244,244,2022-07-25 23:49:03,false,1
245,245,2022-05-26 11:24:56,true,3
246,246,2022-05-22 12:36:30,false,4
247,247,2022-08-04 06:45:11,true,2
248,248,2022-06-04 00:39:52,false,3
249,249,2022-07-14 21:05:02,true,1
250,250,2022-07-21 06:28:26,true,1
251,251,2022-07-16 20:41:09,true,1
252,252,2022-08-05 19:10:32,false,2
253,253,2022-06-27 09:30:01,true,3
254,254,2022-07-09 17:27:57,true,4
255,255,2022-05-24 01:06:45,false,3
256,256,2022-05-29 18:08:39,true,2
257,257,2022-05-27 06:22:19,false,1
258,258,2022-08-02 12:38:18,false,4
259,259,2022-08-08 19:14:22,true,3
260,260,2022-07-06 03:59:07,true,1
261,261,2022-05-21 18:42:59,false,4
262,262,2022-06-19 01:53:42,false,2
263,263,2022-06-19 07:05:56,false,3
264,264,2022-06-09 16:25:28,true,2
265,265,2022-06-02 08:49:46,false,1
266,266,2022-06-17 18:16:44,false,4
267,267,2022-05-26 18:58:42,true,1
268,268,2022-07-12 10:19:50,false,4
269,269,2022-07-16 02:36:28,false,3
270,270,2022-06-11 10:42:22,false,2
271,271,2022-05-30 22:27:28,true,3
272,272,2022-07-04 17:36:46,true,1
273,273,2022-06-16 00:08:53,false,2
274,274,2022-06-14 02:53:56,false,4
275,275,2022-07-14 15:20:11,false,2
276,276,2022-06-09 09:31:23,false,4
277,277,2022-08-06 22:45:54,true,3
278,278,2022-07-30 01:36:20,false,2
279,279,2022-05-27 09:41:07,false,1
280,280,2022-06-13 23:05:40,true,4
281,281,2022-05-24 07:58:43,true,3
282,282,2022-06-07 00:53:24,true,2
283,283,2022-07-20 22:16:19,false,1
284,284,2022-06-03 23:06:27,true,1
285,285,2022-06-22 14:22:01,false,3
286,286,2022-07-18 17:34:40,true,4
287,287,2022-05-17 21:08:09,false,2
288,288,2022-06-27 08:21:31,false,4
289,289,2022-06-01 21:46:16,true,2
290,290,2022-07-27 19:39:55,true,1
291,291,2022-06-10 01:01:30,false,3
292,292,2022-05-14 00:49:49,false,1
293,293,2022-06-11 10:50:30,true,3
294,294,2022-07-02 02:33:58,true,4
295,295,2022-07-22 20:31:39,false,2
296,296,2022-06-26 01:31:20,true,2
297,297,2022-06-21 22:59:52,true,4
298,298,2022-05-15 22:02:55,true,3
299,299,2022-08-02 08:29:11,true,1
300,300,2022-07-15 03:06:43,true,4
301,301,2022-07-28 03:37:02,true,3
302,302,2022-06-06 18:01:57,true,4
303,303,2022-06-14 12:00:19,false,1
304,304,2022-06-01 04:29:02,false,2
305,305,2022-07-22 20:20:12,true,1
306,306,2022-06-23 08:05:45,false,4
307,307,2022-05-27 22:28:48,true,2
308,308,2022-06-14 23:48:09,false,3
309,309,2022-06-04 04:30:15,true,2
310,310,2022-08-06 10:55:32,false,3
311,311,2022-07-06 02:22:52,true,1
312,312,2022-06-18 05:31:20,false,4
313,313,2022-06-01 12:55:49,true,4
314,314,2022-05-24 23:40:36,true,1
315,315,2022-06-04 19:26:29,true,2
316,316,2022-07-21 11:24:16,false,3
317,317,2022-07-09 18:27:57,false,3
318,318,2022-07-31 03:03:15,false,2
319,319,2022-07-06 23:25:08,false,1
320,320,2022-07-06 17:35:08,true,4
321,321,2022-07-23 02:30:52,true,2
322,322,2022-05-28 06:23:27,true,3
323,323,2022-06-24 04:22:31,false,4
324,324,2022-06-23 11:18:29,false,1
325,325,2022-07-10 16:44:23,true,2
326,326,2022-06-06 20:45:11,true,1
327,327,2022-08-04 07:17:00,false,3
328,328,2022-07-24 14:37:33,false,4
329,329,2022-06-14 15:02:51,false,2
330,330,2022-06-14 03:51:35,false,1
331,331,2022-05-22 00:24:27,false,4
332,332,2022-06-15 22:18:28,false,3
333,333,2022-07-21 11:47:10,false,2
334,334,2022-07-09 02:46:48,false,4
335,335,2022-05-15 11:52:46,true,3
336,336,2022-06-01 01:14:59,true,2
337,337,2022-07-25 23:22:33,false,1
338,338,2022-05-20 04:36:52,true,4
339,339,2022-07-10 18:20:57,false,1
340,340,2022-07-25 17:30:52,true,2
341,341,2022-06-24 06:28:48,true,3
342,342,2022-05-11 18:58:17,true,2
343,343,2022-06-06 22:29:59,false,3
344,344,2022-05-12 20:06:18,false,1
345,345,2022-06-25 19:54:16,true,4
346,346,2022-05-21 07:41:44,false,2
347,347,2022-06-05 06:30:32,true,1
348,348,2022-06-09 08:31:30,true,3
349,349,2022-05-13 01:17:39,false,4
350,350,2022-06-10 18:47:26,true,3
351,351,2022-05-19 19:22:38,true,2
352,352,2022-06-19 16:44:49,true,3
353,353,2022-06-05 08:00:46,true,4
354,354,2022-05-30 04:21:11,true,1
355,355,2022-07-09 11:45:53,true,4
356,356,2022-05-22 06:09:13,false,3
357,357,2022-08-03 00:31:15,false,2
358,358,2022-06-27 03:09:58,true,1
359,359,2022-07-24 14:52:38,false,2
360,360,2022-06-19 18:49:07,false,1
361,361,2022-06-12 15:23:49,true,4
362,362,2022-05-19 22:40:14,false,3
363,363,2022-07-07 23:06:24,false,1
364,364,2022-06-09 07:01:22,true,3
365,365,2022-06-20 13:49:23,false,2
366,366,2022-05-15 17:52:56,false,4
367,367,2022-06-13 11:58:57,false,3
368,368,2022-07-25 07:12:17,true,2
369,369,2022-07-11 18:26:02,false,4
370,370,2022-06-29 12:21:45,false,1
371,371,2022-07-08 02:15:06,false,3
372,372,2022-07-18 16:07:36,false,4
373,373,2022-08-05 06:14:21,false,2
374,374,2022-05-18 08:46:40,false,1
375,375,2022-05-20 08:44:25,true,1
376,376,2022-05-21 22:42:12,true,1
377,377,2022-06-06 19:18:20,true,2
378,378,2022-07-18 19:42:45,true,3
379,379,2022-07-04 13:55:22,true,4
380,380,2022-05-29 05:48:39,true,1
381,381,2022-05-25 09:38:31,true,2
382,382,2022-06-14 12:10:32,false,4
383,383,2022-06-09 08:26:29,false,3
384,384,2022-06-22 16:03:43,true,2
385,385,2022-06-25 04:54:14,true,4
386,386,2022-05-25 01:36:43,false,1
387,387,2022-08-06 03:50:16,true,3
388,388,2022-07-03 11:18:11,false,3
389,389,2022-08-08 00:54:13,false,2
390,390,2022-05-19 19:34:24,true,4
391,391,2022-06-04 18:32:05,true,1
392,392,2022-05-11 15:07:12,false,2
393,393,2022-07-10 11:32:25,true,4
394,394,2022-05-18 08:07:09,false,1
395,395,2022-06-04 11:35:09,false,3
396,396,2022-05-19 08:51:46,true,1
397,397,2022-08-08 21:17:53,true,2
398,398,2022-08-04 19:03:38,true,4
399,399,2022-07-14 19:40:51,false,3
400,400,2022-06-09 11:11:20,true,2
401,401,2022-06-29 01:00:07,true,2
402,402,2022-07-18 11:17:10,true,4
403,403,2022-05-19 15:06:52,false,3
404,404,2022-06-24 04:58:32,false,1
405,405,2022-05-22 19:31:52,true,2
406,406,2022-06-17 23:09:31,false,4
407,407,2022-07-27 04:46:37,true,1
408,408,2022-06-16 11:13:55,true,3
409,409,2022-05-20 20:53:15,false,1
410,410,2022-08-04 23:21:19,false,4
411,411,2022-08-04 12:34:35,true,3
412,412,2022-05-30 10:10:31,true,2
413,413,2022-05-19 03:05:32,false,3
414,414,2022-06-12 13:02:30,true,2
415,415,2022-06-03 23:51:12,true,1
416,416,2022-05-14 20:35:57,true,4
417,417,2022-06-22 07:15:54,false,2
418,418,2022-06-17 01:01:09,false,4
419,419,2022-07-22 21:31:07,true,3
420,420,2022-07-30 15:25:07,false,1
421,421,2022-08-01 13:00:13,false,3
422,422,2022-05-09 03:13:27,false,2
423,423,2022-07-27 05:51:57,true,4
424,424,2022-06-02 05:39:34,false,1
425,425,2022-07-03 20:45:35,false,1
426,426,2022-06-20 06:50:50,true,1
427,427,2022-07-30 10:27:33,false,4
428,428,2022-07-03 08:11:42,true,3
429,429,2022-05-16 09:02:12,true,2
430,430,2022-06-21 04:26:07,false,3
431,431,2022-05-12 13:28:12,true,4
432,432,2022-05-25 19:38:50,true,1
433,433,2022-08-08 05:42:41,true,2
434,434,2022-07-27 00:06:06,true,2
435,435,2022-05-26 03:55:44,true,4
436,436,2022-06-30 00:59:19,false,3
437,437,2022-08-03 16:02:39,false,1
438,438,2022-05-25 06:05:29,true,2
439,439,2022-07-19 01:00:07,false,4
440,440,2022-06-16 23:35:54,true,3
441,441,2022-07-31 07:07:37,true,1
442,442,2022-06-19 14:36:17,false,3
443,443,2022-07-04 19:49:19,true,2
444,444,2022-06-17 18:21:16,false,4
445,445,2022-07-15 15:28:15,false,1
446,446,2022-05-26 10:09:59,true,4
447,447,2022-05-29 02:24:07,false,3
448,448,2022-07-07 18:50:59,false,1
449,449,2022-08-05 16:51:15,true,2
450,450,2022-06-12 16:57:39,true,1
451,451,2022-07-06 22:55:45,false,4
452,452,2022-07-21 10:49:16,false,3
453,453,2022-07-25 20:37:24,false,2
454,454,2022-08-03 18:25:55,true,1
455,455,2022-06-02 22:47:18,true,2
456,456,2022-07-12 06:51:30,true,4
457,457,2022-05-20 07:34:49,false,3
458,458,2022-05-23 22:19:41,false,1
459,459,2022-08-06 19:27:23,false,3
460,460,2022-07-05 20:16:26,true,4
461,461,2022-05-20 16:00:59,true,2
462,462,2022-06-26 22:30:27,true,1
463,463,2022-05-26 02:29:07,true,3
464,464,2022-06-13 12:53:40,true,1
465,465,2022-05-28 18:34:30,false,2
466,466,2022-07-05 06:07:32,true,4
467,467,2022-07-12 00:33:03,true,4
468,468,2022-07-16 21:52:21,false,1
469,469,2022-06-27 13:55:51,true,3
470,470,2022-07-15 09:47:40,false,2
471,471,2022-07-02 11:17:09,false,2
472,472,2022-07-04 11:21:29,false,3
473,473,2022-07-11 07:11:55,true,4
474,474,2022-06-02 16:44:58,true,1
475,475,2022-05-10 02:04:34,false,2
476,476,2022-05-28 15:15:41,true,4
477,477,2022-08-01 13:02:10,false,3
478,478,2022-08-03 01:37:18,false,2
479,479,2022-05-29 13:54:19,false,1
480,480,2022-06-15 15:16:47,true,3
481,481,2022-08-05 20:11:46,false,4
482,482,2022-05-28 17:14:08,false,1
483,483,2022-05-21 02:10:54,true,2
484,484,2022-07-26 02:17:38,false,4
485,485,2022-07-23 13:50:38,true,2
486,486,2022-06-28 01:00:17,false,3
487,487,2022-08-08 21:59:46,true,1
488,488,2022-08-03 09:20:23,false,3
489,489,2022-06-02 11:48:12,true,4
490,490,2022-08-06 15:25:17,false,2
491,491,2022-07-14 15:58:17,false,1
492,492,2022-07-01 02:47:01,true,2
493,493,2022-05-12 23:31:40,false,3
494,494,2022-06-08 14:34:14,false,4
495,495,2022-07-07 02:12:29,false,1
496,496,2022-06-13 10:29:51,false,2
497,497,2022-08-01 01:00:04,false,4
498,498,2022-06-24 13:43:13,false,3
499,499,2022-06-26 15:07:36,true,1
500,500,2022-06-20 06:34:38,false,2
